// Jest Snapshot v1, https://goo.gl/fbAQLP

exports[`TodoItem Renders default correctly 1`] = `
<DocumentFragment>
  <div
    class="todoItem"
  >
    <label
      class="label"
      data-testid="status"
      for="test"
    >
      <input
        class="checkbox"
        id="test"
        type="checkbox"
      />
      <svg
        class="icon"
        viewBox="0 0 20 20"
        xmlns="http://www.w3.org/2000/svg"
      >
        <path
          d="M11.23 13.7l-2.15-2a.55.55 0 0 0-.74-.01l.03-.03a.46.46 0 0 0 0 .68L11.24 15l5.4-5.01a.45.45 0 0 0 0-.68l.02.03a.55.55 0 0 0-.73 0l-4.7 4.35z"
          fill="inherit"
          fill-rule="evenodd"
        />
      </svg>
    </label>
    <h3
      class="title"
      data-testid="title"
    >
      Test
    </h3>
    <div
      class="dueDate"
    >
      Thu Jan 01 1970
    </div>
  </div>
</DocumentFragment>
`;

exports[`TodoItem Renders with props correctly 1`] = `
<DocumentFragment>
  <div
    class="todoItem test completed"
  >
    <label
      class="label completed"
      data-testid="status"
      for="test"
    >
      <input
        checked=""
        class="checkbox"
        id="test"
        type="checkbox"
      />
      <svg
        class="icon"
        viewBox="0 0 20 20"
        xmlns="http://www.w3.org/2000/svg"
      >
        <path
          d="M11.23 13.7l-2.15-2a.55.55 0 0 0-.74-.01l.03-.03a.46.46 0 0 0 0 .68L11.24 15l5.4-5.01a.45.45 0 0 0 0-.68l.02.03a.55.55 0 0 0-.73 0l-4.7 4.35z"
          fill="inherit"
          fill-rule="evenodd"
        />
      </svg>
    </label>
    <h3
      class="title"
      data-testid="title"
    >
      New title
    </h3>
    <div
      class="dueDate"
    >
      Thu Jan 01 1970
    </div>
  </div>
</DocumentFragment>
`;
